company1,company1@gmail.com,image1.png,www.google.com,active
company2,company2@gmail.com,image2.png,www.google.com,inactive
company3,company3@gmail.com,image3.png,www.google.com,active
company4,company4@gmail.com,image4.png,www.google.com,active
company5,company5@gmail.com,image5.png,www.google.com,inactive
company6,company6@gmail.com,image6.png,www.google.com,active
company7,company7@gmail.com,image7.png,www.google.com,active
company8,company8@gmail.com,image8.png,www.google.com,inactive
company9,company9@gmail.com,image9.png,www.google.com,active
company10,company10@gmail.com,image10.png,www.google.com,active
company11,company11@gmail.com,image11.png,www.google.com,inactive